{
  "project_info": {
    "project_number": "947784316889",
    "project_id": "heavyduty-42122",
    "storage_bucket": "heavyduty-42122.appspot.com"
  },
  "client": [
    {
      "client_info": {
        "mobilesdk_app_id": "1:947784316889:android:b9797e6f4292d918b00bc8",
        "android_client_info": {
          "package_name": "com.heavyduty"
        }
      },
      "oauth_client": [
        {
          "client_id": "947784316889-jom43a4tro26ci08pd9slahpvee5kirp.apps.googleusercontent.com",
          "client_type": 3
        }
      ],
      "api_key": [
        {
          "current_key": "AIzaSyD8GuXvJcQFEbdYjozWS07LcI1RX4w5to0"
        }
      ],
      "services": {
        "appinvite_service": {
          "other_platform_oauth_client": [
            {
              "client_id": "947784316889-jom43a4tro26ci08pd9slahpvee5kirp.apps.googleusercontent.com",
              "client_type": 3
            }
          ]
        }
      }
    }
  ],
  "configuration_version": "1"
}